[
  {
    "data_source_id": 32,
    "data_source_name": "Tenable.sc",
    "key": "8-critical-156032-foo-01.example.com-10.136.150.75-0-tcp",
    "current": true,
    "last_updated": "2022-12-18T19:41:04.000-05:00",
    "last_active": "2022-12-18T19:30:12.000-05:00",
    "data_timestamp": "2022-12-18T19:30:12.000-05:00",
    "url": "http://www.tenable.com/plugins/nessus/156032",
    "data": {
      "first_observed": 1640305813,
      "vulnerability_severity": "critical",
      "exploit_available": false,
      "patch_published": null,
      "plugin_id": "156032",
      "description": "Apache Log4j Unsupported Version Detection",
      "ip": "1.2.3.4",
      "port": "0",
      "protocol": "TCP",
      "vulnerability_details": "Path              : /srv/opt/app/oracle/product/agent13c/GoldImage_Agent134_linux/agent_13.4.0.0.0/ocm/jlib/jlib/log4j-core.jar\n  Installed version : 1.2.17",
      "solution": "Upgrade to a version of Apache Log4j that is currently supported.\n\nUpgrading to the latest versions for Apache Log4j is highly recommended as intermediate versions / patches have known high severity vulnerabilities and the vendor is updating their advisories often as new research and knowledge about the impact of Log4j is discovered. Refer to https://logging.apache.org/log4j/2.x/security.html for the latest versions.",
      "pending_next_patchset": false
    },
    "extra_data": {
      "DNS Name": "foo-01.example.com",
      "NETBIOS Name": ""
    }
  }
]
